2018-05-10T09:36:23+00:00 CRITICAL Uncaught Error: Call to undefined function the_field() in /home/158890.cloudwaysapps.com/vyengxgtzz/public_html/wp-content/themes/robsons/index.php:12
Stack trace:
#0 /home/158890.cloudwaysapps.com/vyengxgtzz/public_html/wp-includes/template-loader.php(74): include()
#1 /home/158890.cloudwaysapps.com/vyengxgtzz/public_html/wp-blog-header.php(19): require_once('/home/158890.cl...')
#2 /home/158890.cloudwaysapps.com/vyengxgtzz/public_html/index.php(17): require('/home/158890.cl...')
#3 {main}
  thrown

2018-05-10T11:17:06+00:00 CRITICAL Uncaught Error: Call to undefined function the_field() in /home/158890.cloudwaysapps.com/vyengxgtzz/public_html/wp-content/themes/robsons/index.php:12
Stack trace:
#0 /home/158890.cloudwaysapps.com/vyengxgtzz/public_html/wp-includes/template-loader.php(74): include()
#1 /home/158890.cloudwaysapps.com/vyengxgtzz/public_html/wp-blog-header.php(19): require_once('/home/158890.cl...')
#2 /home/158890.cloudwaysapps.com/vyengxgtzz/public_html/index.php(17): require('/home/158890.cl...')
#3 {main}
  thrown

2018-05-10T11:19:26+00:00 CRITICAL Uncaught Error: Call to undefined function the_field() in /home/158890.cloudwaysapps.com/vyengxgtzz/public_html/wp-content/themes/robsons/index.php:12
Stack trace:
#0 /home/158890.cloudwaysapps.com/vyengxgtzz/public_html/wp-includes/template-loader.php(74): include()
#1 /home/158890.cloudwaysapps.com/vyengxgtzz/public_html/wp-blog-header.php(19): require_once('/home/158890.cl...')
#2 /home/158890.cloudwaysapps.com/vyengxgtzz/public_html/index.php(17): require('/home/158890.cl...')
#3 {main}
  thrown

